27
65
104
142
181
219
257
296
334
373
411
452
494
535
577
618
659
701
742
784
825
867
908
950
991
1033
1074
1116
1157
1199
1240
1281
1322
1363
1404
1446
1487
1528
1569
1610
1651
1692
1734
1775
1816
1858
1899
1940
1981
2023
2064
2105
2147
2188
2230
2271
2312
2354
2395
2437
2478
2519
2560
2601
2642
2683
2724
2765
2806
2847
2888
2929
2970
3012
3053
3094
3135
3176
3218
3259
3300
3340
3380
3420
3460
3500
3540
3580
3620
3660
3700
3740
3779
3819
3858
3898
3937
3977
4016
4056
4095
